[gd_scene load_steps=3 format=2]

[ext_resource path="res://Scripts/Endless_Floor.gd" type="Script" id=1]
[ext_resource path="res://Scenes/Floor_Segment.tscn" type="PackedScene" id=2]

[node name="Floor" type="Node2D"]
script = ExtResource( 1 )
floor_segment = ExtResource( 2 )
