[gd_scene load_steps=4 format=2]

[ext_resource path="res://assets/floor-1.png" type="Texture" id=1]
[ext_resource path="res://Scripts/Floor_Segment.gd" type="Script" id=2]

[sub_resource type="RectangleShape2D" id=1]
extents = Vector2( 295.968, 3.44448 )

[node name="StaticBody2D" type="StaticBody2D"]
script = ExtResource( 2 )

[node name="Sprite" type="Sprite" parent="."]
texture = ExtResource( 1 )

[node name="CollisionShape2D" type="CollisionShape2D" parent="."]
shape = SubResource( 1 )

[node name="VisibilityNotifier2D" type="VisibilityNotifier2D" parent="."]
position = Vector2( 1.26051, -0.315132 )
scale = Vector2( 29.5503, 0.464288 )
[connection signal="screen_exited" from="VisibilityNotifier2D" to="." method="_on_VisibilityNotifier2D_screen_exited"]
